{
  "musics": [
    {
      "id": 1,
      "title": "Oh my Deer",
      "artist": "By Artist",
      "rate": "4",
      "description": "Lorem ipsum dolor sit, con advert, sed diam main alert noun.",
      "price": "14.99",
      "salePrice": null,
      "imgPath": "/images/Items/image-1.png"
    },
    {
      "id": 2,
      "title": "Awaken the Hero",
      "artist": "By Artist",
      "rate": "4",
      "description": "Lorem ipsum dolor sit, con advert, sed diam main alert noun.",
      "price": "17.59",
      "salePrice": null,
      "imgPath": "/images/Items/image-2.png"
    },
    {
      "id": 3,
      "title": "Oh my Deer",
      "artist": "By Artist",
      "rate": "4",
      "description": "Lorem ipsum dolor sit, con advert, sed diam main alert noun.",
      "price": "8.99",
      "salePrice": null,
      "imgPath": "/images/Items/image-3.png"
    },
    {
      "id": 4,
      "title": "Ravenna",
      "artist": "By Artist",
      "rate": "4",
      "description": "Lorem ipsum dolor sit, con advert, sed diam main alert noun.",
      "price": "22.99",
      "salePrice": null,
      "imgPath": "/images/Items/image-4.png"
    },
    {
      "id": 5,
      "title": "Caribou",
      "artist": "By Artist",
      "rate": "4",
      "description": "Lorem ipsum dolor sit, con advert, sed diam main alert noun.",
      "price": "14.99",
      "salePrice": "8.99",
      "imgPath": "/images/Items/sale-1.png"
    },
    {
      "id": 6,
      "title": "Aqualung",
      "artist": "By Artist",
      "rate": "4",
      "description": "Lorem ipsum dolor sit, con advert, sed diam main alert noun.",
      "price": "14.99",
      "salePrice": "8.99",
      "imgPath": "/images/Items/sale-2.png"
    },
    {
      "id": 7,
      "title": "Strange to ears",
      "artist": "By Artist",
      "rate": "4",
      "description": "Lorem ipsum dolor sit, con advert, sed diam main alert noun.",
      "price": "14.99",
      "salePrice": "8.99",
      "imgPath": "/images/Items/sale-3.png"
    },
    {
      "id": 8,
      "title": "Ravenna",
      "artist": "By Artist",
      "rate": "4",
      "description": "Lorem ipsum dolor sit, con advert, sed diam main alert noun.",
      "price": "14.99",
      "salePrice": "8.99",
      "imgPath": "/images/Items/sale-4.png"
    },
    {
      "id": 9,
      "title": "Hi",
      "artist": "By Artist",
      "rate": "4",
      "description": "Lorem ipsum dolor sit, con advert, sed diam main alert noun.",
      "price": "14.99",
      "salePrice": "8.99",
      "imgPath": "/images/Items/sale-4.png"
    },
    {
      "id": 10,
      "title": "World",
      "artist": "By Artist",
      "rate": "4",
      "description": "Lorem ipsum dolor sit, con advert, sed diam main alert noun.",
      "price": "112.99",
      "salePrice": "8.99",
      "imgPath": "/images/Items/sale-4.png"
    },
    {
      "id": 11,
      "title": "Raven",
      "artist": "By Artist",
      "rate": "4",
      "description": "Lorem ipsum dolor sit, con advert, sed diam main alert noun.",
      "price": "16.99",
      "salePrice": "8.99",
      "imgPath": "/images/Items/sale-4.png"
    }
  ],
  "card": [
    {
      "imgPath": "/images/Items/image-2.png",
      "title": "Awaken the Hero",
      "rate": "4",
      "cost": "17.59",
      "id": 2
    },
    {
      "imgPath": "/images/Items/image-3.png",
      "title": "Oh my Deer",
      "rate": "4",
      "cost": "8.99",
      "id": 3
    },
    {
      "imgPath": "/images/Items/image-4.png",
      "title": "Ravenna",
      "rate": "4",
      "cost": "22.99",
      "id": 4
    },
    {
      "imgPath": "/images/Items/image-1.png",
      "title": "Oh my Deer",
      "rate": "4",
      "cost": "14.99",
      "id": 1
    }
  ]
}